…
    ## Warning: Column `Glottocode`/`glottocode` joining character vector and
    ## factor, coercing into character vector

``` r
# Note here that the `Name` column is from the Glottolog data and not from PHOIBLE
languages[which(!(languages$LanguageName == languages$name)),]
```

    ## # A tibble: 1,526 x 9
    ## # Groups:   InventoryID, LanguageName, Glottocode, LanguageCode [1,526]
    ##    InventoryID LanguageName Glottocode LanguageCode name  macroarea
    ##          <int> <chr>        <chr>      <chr>        <fct> <fct>    
    ##  1           9 Kota         kota1263   kfe          Kota… Eurasia  
    ##  2          14 Cambodian    cent1989   khm          Cent… Eurasia  
    ##  3          17 Wu           wuch1236   wuu          Wu C… Eurasia  
    ##  4          18 Hakka        hakk1236   hak          Hakk… Eurasia  
    ##  5          19 Cantonese    yuec1235   yue          Yue … Eurasia  
    ##  6          20 Yao          iumi1238   ium          Iu M… Eurasia  
    ##  7          21 Dafla        nyis1236   njz          Nyis… Eurasia  
    ##  8          25 Karen        sgaw1245   ksw          S'ga… Eurasia  
    ##  9          28 Yay          bouy1240   pcc          Bouy… Eurasia  
    ## 10          29 Cham         west2650   cja          West… Eurasia  
    ## # ... with 1,516 more rows, and 3 more variables: latitude <dbl>,
    ## #   longitude <dbl>, isocodes <fct>

``` r
# TODO: Here the PHOIBLE and Glottocode ISO codes don't match up
languages[which(!(languages$LanguageCode == languages$isocodes)),]
```

    ## # A tibble: 49 x 9
    ## # Groups:   InventoryID, LanguageName, Glottocode, LanguageCode [49]
    ##    InventoryID LanguageName Glottocode LanguageCode name  macroarea
    ##          <int> <chr>        <chr>      <chr>        <fct> <fct>    
    ##  1          40 Kaliai       kali1299   khl          Kali… Papunesia
    ##  2         136 Katcha       katc1250   xtc          Katc… Africa   
    ##  3         155 Nama         nama1265   naq          Nama  Africa   
    ##  4         298 DAN          dann1241   lda          Dan   Africa   
    ##  5         613 WINTU        wint1259   wnw          Wintu North Am…
    ##  6         691 "dan "       dann1241   dnj          Dan   Africa   
    ##  7         871 Korafe       kora1295   kpr          Kora… Papunesia
    ##  8         875 Endo         endo1242   enb          Endo  Africa   
    ##  9         885 Huron        huro1249   wya          Huron North Am…
    ## 10         916 Kuay         kuay1244   kdt          Kuay  Eurasia  
    ## # ... with 39 more rows, and 3 more variables: latitude <dbl>,
    ## #   longitude <dbl>, isocodes <fct>
…
