…
    ## [1] 426

``` r
# How many are marginal?
nrow(uvulars %>% filter(Marginal) %>% group_by(InventoryID, Marginal)) # 21 rows
```

    ## [1] 21

``` r
uvulars %>% filter(Marginal) %>% group_by(InventoryID, Marginal)
```

    ## # A tibble: 21 x 66
    ## # Groups:   InventoryID, Marginal [16]
    ##    InventoryID Glottocode ISO6393 LanguageName SpecificDialect GlyphID Phoneme
    ##          <int> <chr>      <chr>   <chr>        <chr>           <chr>   <chr>  
    ##  1         231 egyp1253   arz     ARABIC       <NA>            0071    q      
    ##  2         241 bata1289   bbc     BATAK        <NA>            0280    ʀ      
    ##  3         264 buru1296   bsk     BURUSHASKI   <NA>            03C7    χ      
    ##  4         306 kumi1248   dih     DIEGUENO     <NA>            0071    q      
    ##  5         321 basq1248   eus     BASQUE       <NA>            03C7    χ      
    ##  6         354 hind1269   hin     HINDI-URDU   <NA>            0071    q      
    ##  7         354 hind1269   hin     HINDI-URDU   <NA>            0281    ʁ      
    ##  8         354 hind1269   hin     HINDI-URDU   <NA>            03C7    χ      
    ##  9         500 nuuc1236   nuk     TSESHAHT     <NA>            0071+0… qʷ     
    ## 10         500 nuuc1236   nuk     TSESHAHT     <NA>            0071+0… qʼ     
    ## # … with 11 more rows, and 59 more variables: Allophones <chr>, Marginal <lgl>,
    ## #   SegmentClass <chr>, Source <chr>, tone <chr>, stress <chr>, syllabic <chr>,
    ## #   short <chr>, long <chr>, consonantal <chr>, sonorant <chr>,
    ## #   continuant <chr>, delayedRelease <chr>, approximant <chr>, tap <chr>,
    ## #   trill <chr>, nasal <chr>, lateral <chr>, labial <chr>, round <chr>,
    ## #   labiodental <chr>, coronal <chr>, anterior <chr>, distributed <chr>,
    ## #   strident <chr>, dorsal <chr>, high <chr>, low <chr>, front <chr>,
    ## #   back <chr>, tense <chr>, retractedTongueRoot <chr>,
    ## #   advancedTongueRoot <chr>, periodicGlottalSource <chr>,
…
    ## [1] 267

``` r
# How many are marginal?
nrow(ejectives %>% filter(Marginal) %>% group_by(InventoryID, Marginal))
```

    ## [1] 23

``` r
ejectives %>% filter(Marginal) %>% group_by(InventoryID, Marginal) # 23 rows
```

    ## # A tibble: 23 x 66
    ## # Groups:   InventoryID, Marginal [18]
    ##    InventoryID Glottocode ISO6393 LanguageName SpecificDialect GlyphID Phoneme
    ##          <int> <chr>      <chr>   <chr>        <chr>           <chr>   <chr>  
    ##  1         219 amha1245   amh     AMHARIC      <NA>            0070+0… pʼ     
    ##  2         228 arch1244   aqc     ARCHI        <NA>            0074+0… t̠ʃʷʼ   
    ##  3         228 arch1244   aqc     ARCHI        <NA>            0074+0… t̪s̪ʷʼ…  
    ##  4         228 arch1244   aqc     ARCHI        <NA>            0074+0… t̪ɬ̪ʷʼ…  
    ##  5         283 uppe1439   cjh     UPPER CHEHA… <NA>            006B+0… kʼ     
    ##  6         357 hadz1240   hts     HADZA        <NA>            0070+0… pʼ     
    ##  7         394 kafa1242   kbr     KEFA         <NA>            0074+0… t̠ʃʼ    
    ##  8         500 nuuc1236   nuk     TSESHAHT     <NA>            0071+0… qʼ     
    ##  9         531 rutu1240   rut     RUTUL        <NA>            0074+0… t̠ʃʷʼ   
    ## 10         531 rutu1240   rut     RUTUL        <NA>            0074+0… t̪s̪ʷʼ…  
    ## # … with 13 more rows, and 59 more variables: Allophones <chr>, Marginal <lgl>,
    ## #   SegmentClass <chr>, Source <chr>, tone <chr>, stress <chr>, syllabic <chr>,
    ## #   short <chr>, long <chr>, consonantal <chr>, sonorant <chr>,
    ## #   continuant <chr>, delayedRelease <chr>, approximant <chr>, tap <chr>,
    ## #   trill <chr>, nasal <chr>, lateral <chr>, labial <chr>, round <chr>,
    ## #   labiodental <chr>, coronal <chr>, anterior <chr>, distributed <chr>,
    ## #   strident <chr>, dorsal <chr>, high <chr>, low <chr>, front <chr>,
    ## #   back <chr>, tense <chr>, retractedTongueRoot <chr>,
    ## #   advancedTongueRoot <chr>, periodicGlottalSource <chr>,
…
