…
    # Which bibtex keys are in the phoible bibtex index and NOT in the bibtex file?
    ## We expect one missing reference:
    expect_equal(1, length(which(!(index.bibtex$BibtexKey %in% bib$BIBTEXKEY))))
    index.bibtex[which(!(index.bibtex$BibtexKey %in% bib$BIBTEXKEY)), ]

    ##     InventoryID       BibtexKey Source Filename
    ## 353         201 NO SOURCE GIVEN  upsid     <NA>
    ##                                                   URI
    ## 353 http://web.phonetik.uni-frankfurt.de/L/L8362.html

    # phoible bibex file has more (legacy) entries than in the phoible index
    bib[which(!(bib$BIBTEXKEY %in% index.bibtex$BibtexKey)), ]

    ## # A tibble: 255 x 130
    ##    CATEGORY BIBTEXKEY ADDRESS ANNOTE AUTHOR BOOKTITLE CHAPTER CROSSREF EDITION
    ##    <chr>    <chr>     <chr>   <chr>  <list> <chr>     <chr>   <chr>    <chr>  
    ##  1 ARTICLE  Schadebe… <NA>    <NA>   <chr … <NA>      <NA>    <NA>     <NA>   
    ##  2 MISC     Round2019 <NA>    <NA>   <chr … <NA>      <NA>    <NA>     <NA>   
    ##  3 MISC     Nikolaev… <NA>    <NA>   <chr … <NA>      <NA>    <NA>     <NA>   
    ##  4 MISC     saphon    <NA>    <NA>   <chr … <NA>      <NA>    <NA>     <NA>   
    ##  5 MISC     spa1979   <NA>    <NA>   <chr … <NA>      <NA>    <NA>     <NA>   
    ##  6 BOOK     maddieso… Cambri… <NA>   <chr … <NA>      <NA>    <NA>     <NA>   
    ##  7 INCOLLE… maddieso… <NA>    <NA>   <chr … UCLA Wor… <NA>    <NA>     <NA>   
    ##  8 BOOK     ramaswam… <NA>    <NA>   <chr … <NA>      <NA>    <NA>     <NA>   
    ##  9 PHDTHES… Moran2012 <NA>    <NA>   <chr … <NA>      <NA>    <NA>     <NA>   
    ## 10 BOOK     Moran_et… Leipzig <NA>   <chr … <NA>      <NA>    <NA>     <NA>   
    ## # … with 245 more rows, and 121 more variables: EDITOR <list>,
    ## #   HOWPUBLISHED <chr>, INSTITUTION <chr>, JOURNAL <chr>, KEY <chr>,
    ## #   MONTH <chr>, NOTE <chr>, NUMBER <chr>, ORGANIZATION <chr>, PAGES <chr>,
    ## #   PUBLISHER <chr>, SCHOOL <chr>, SERIES <chr>, TITLE <chr>, TYPE <chr>,
    ## #   VOLUME <chr>, YEAR <chr>, DATE.ADDED <chr>, DATE.MODIFIED <chr>,
    ## #   BDSK.URL.1 <chr>, URL <chr>, CATALOGUE.URL <chr>, ISBN <chr>,
    ## #   AIATSIS_CALLNUMBER <chr>, AIATSIS_CODE <chr>,
    ## #   AIATSIS_REFERENCE_LANGUAGE <chr>, CLASS_LOC <chr>, DOCUMENT_TYPE <chr>,
    ## #   FN <chr>, HHTYPE <chr>, INLG <chr>, LGCODE <chr>, MACRO_AREA <chr>,
…
