…
``` r
# Which languages don't have retroflexes?
r2 %>% filter(!has.retroflex)
```

    ## # A tibble: 67 x 4
    ## # Groups:   InventoryID, Glottocode [67]
    ##    InventoryID Glottocode LanguageName has.retroflex
    ##          <int> <chr>      <chr>        <lgl>        
    ##  1          21 nyis1236   Dafla        FALSE        
    ##  2          22 nucl1310   Burmese      FALSE        
    ##  3          24 garo1247   Garo         FALSE        
    ##  4         188 kirg1245   Kirghiz      FALSE        
    ##  5         227 apuc1241   ANDAMANESE   FALSE        
    ##  6         261 brah1256   BRAHUI       FALSE        
    ##  7         263 bodo1269   BODO         FALSE        
    ##  8         271 carn1240   NICOBARESE   FALSE        
    ##  9         287 haka1240   LAI          FALSE        
    ## 10         293 tedi1235   TIDDIM CHIN  FALSE        
    ## # ... with 57 more rows

``` r
no.retroflexes <- r2 %>% filter(!has.retroflex)
no.retroflexes
```

    ## # A tibble: 67 x 4
    ## # Groups:   InventoryID, Glottocode [67]
    ##    InventoryID Glottocode LanguageName has.retroflex
    ##          <int> <chr>      <chr>        <lgl>        
    ##  1          21 nyis1236   Dafla        FALSE        
    ##  2          22 nucl1310   Burmese      FALSE        
    ##  3          24 garo1247   Garo         FALSE        
    ##  4         188 kirg1245   Kirghiz      FALSE        
    ##  5         227 apuc1241   ANDAMANESE   FALSE        
    ##  6         261 brah1256   BRAHUI       FALSE        
    ##  7         263 bodo1269   BODO         FALSE        
    ##  8         271 carn1240   NICOBARESE   FALSE        
    ##  9         287 haka1240   LAI          FALSE        
    ## 10         293 tedi1235   TIDDIM CHIN  FALSE        
    ## # ... with 57 more rows
…
