…
``` r
# Which phoible-references.bib bibtex keys not in InventoryID-Bibtex.tsv?
ph.bib[which(!(ph.bib$BIBTEXKEY %in% ph.refs$BibtexKey)),] %>% select(BIBTEXKEY)
```

    ## # A tibble: 112 x 1
    ##    BIBTEXKEY           
    ##    <chr>               
    ##  1 316915              
    ##  2 468946              
    ##  3 469869              
    ##  4 471471              
    ##  5 haiman1992rhaeto    
    ##  6 spence1987consonants
    ##  7 zai_pickett2011     
    ##  8 1701_Natarajan1985  
    ##  9 1702_Manoharan1989  
    ## 10 1703_Ravindran1974  
    ## # ... with 102 more rows
…
