…
``` r
# How many proto-languages in BDPROTO have interdental fricatives?
bdproto <- read.csv(url("https://raw.githubusercontent.com/bdproto/bdproto/master/bdproto.csv"), stringsAsFactors = FALSE)

# Get the interdental fricatives
bdproto.interdental.fricatives <- bdproto %>% filter(grepl("θ|ð", Phoneme))

# How are they distributed?
bdproto.distribution.interdental.fricatives <- bdproto.interdental.fricatives %>% group_by(Phoneme) %>% summarize(count=n()) %>% arrange(desc(count))
bdproto.distribution.interdental.fricatives
```

    ## # A tibble: 21 x 2
    ##    Phoneme count
    ##    <chr>   <int>
    ##  1 ð          21
    ##  2 θ          16
    ##  3 θ̪           6
    ##  4 ð̪ʲ          5
    ##  5 θː          4
    ##  6 ðː          2
    ##  7 θˁ          2
    ##  8 ð’          1
    ##  9 d̪ð̪          1
    ## 10 ðʲ          1
    ## # … with 11 more rows
…
