…
``` r
iso.marcoareas <- phoible %>% select(ISO6393, macroarea) %>% distinct()
phonemes.per.iso.with.geo <- left_join(phonemes.per.iso, iso.marcoareas)
```

    ## Joining, by = "ISO6393"

``` r
phonemes.per.iso.with.geo
```

    ## # A tibble: 82,138 × 4
    ## # Groups:   ISO6393 [2,099]
    ##    ISO6393 Phoneme count macroarea
    ##    <chr>   <chr>   <int> <chr>    
    ##  1 aae     a           2 Eurasia  
    ##  2 aae     b           2 Eurasia  
    ##  3 aae     c           1 Eurasia  
    ##  4 aae     ç           2 Eurasia  
    ##  5 aae     d           2 Eurasia  
    ##  6 aae     ð           2 Eurasia  
    ##  7 aae     dz          2 Eurasia  
    ##  8 aae     d̠ʒ          2 Eurasia  
    ##  9 aae     ə           1 Eurasia  
    ## 10 aae     ɛ           2 Eurasia  
    ## # … with 82,128 more rows
…
    ## `summarise()` has grouped output by 'macroarea'. You can override using the
    ## `.groups` argument.

``` r
y <- left_join(macro.area.phoneme.counts, geo.counts)
```

    ## Joining, by = "macroarea"

``` r
y$coverage <- y$count/y$totals
y
```

    ## # A tibble: 5,299 × 5
    ## # Groups:   macroarea [6]
    ##    macroarea Phoneme count totals coverage
    ##    <chr>     <chr>   <int>  <int>    <dbl>
    ##  1 Africa    ˥          40    707  0.0566 
    ##  2 Africa    ˥˦          4    707  0.00566
    ##  3 Africa    ˥˧          1    707  0.00141
    ##  4 Africa    ˥˨          1    707  0.00141
    ##  5 Africa    ˥˨˧         1    707  0.00141
    ##  6 Africa    ˥˩         40    707  0.0566 
    ##  7 Africa    ˦         451    707  0.638  
    ##  8 Africa    ˦˥          3    707  0.00424
    ##  9 Africa    ˦˦˨         1    707  0.00141
    ## 10 Africa    ˦˧          9    707  0.0127 
    ## # … with 5,289 more rows
…
