…
``` r
# How many inventories contain segments without features AND no Glottocode?
table(is.na(missing.ids$Glottocode))
```

    ## 
    ## FALSE  TRUE 
    ##   609   116

``` r
# Which ones?
missing.ids %>% filter(is.na(Glottocode))
```

    ## # A tibble: 116 x 7
    ## # Groups:   InventoryID, Glottocode, LanguageName, Source, latitude,
    ## #   longitude, macroarea [116]
    ##    LanguageName Source InventoryID Glottocode macroarea latitude longitude
    ##    <chr>        <chr>        <int> <chr>      <chr>        <dbl>     <dbl>
    ##  1 !Xun         gm            1383 <NA>       <NA>            NA        NA
    ##  2 Estonian     uz            2181 <NA>       <NA>            NA        NA
    ##  3 Tod Tibetan  ea            2264 <NA>       <NA>            NA        NA
    ##  4 Beserman     ea            2268 <NA>       <NA>            NA        NA
    ##  5 Modern Aram… ea            2281 <NA>       <NA>            NA        NA
    ##  6 Puxi         ea            2298 <NA>       <NA>            NA        NA
    ##  7 Rgyalthang … ea            2327 <NA>       <NA>            NA        NA
    ##  8 Northern Cu… ea            2350 <NA>       <NA>            NA        NA
    ##  9 Lizu         ea            2352 <NA>       <NA>            NA        NA
    ## 10 Zuberoan Ba… ea            2381 <NA>       <NA>            NA        NA
    ## # ... with 106 more rows
…
