…
``` r
# Which phonemes arent in the other?
p14.segments[which(!(p14.segments$Phoneme %in% p19.segments$Phoneme)),]
```

    ## # A tibble: 195 x 4
    ##    Phoneme count coverage  Rank
    ##    <chr>   <int>    <dbl> <int>
    ##  1 *R̪         37  0.0171    205
    ##  2 kʼʲ        13  0.00602   340
    ##  3 *R         10  0.00463   375
    ##  4 cɕ          7  0.00324   446
    ##  5 l̪̰           7  0.00324   458
    ##  6 b̃           5  0.00231   527
    ##  7 d̃           5  0.00231   528
    ##  8 d̪ɮ̪          5  0.00231   529
    ##  9 ʰm          4  0.00185   606
    ## 10 *R̪̰          3  0.00139   663
    ## # ... with 185 more rows

``` r
p19.segments[which(!(p19.segments$Phoneme %in% p14.segments$Phoneme)),]
```

    ## # A tibble: 1,210 x 4
    ##    Phoneme count coverage  Rank
    ##    <chr>   <int>    <dbl> <int>
    ##  1 ȵ         380   0.120     59
    ##  2 ȶ         313   0.0986    68
    ##  3 ȴ         202   0.0636    91
    ##  4 n̪|n       161   0.0507   101
    ##  5 t̪|t       153   0.0482   107
    ##  6 l̺         140   0.0441   112
    ##  7 l̪|l       137   0.0431   115
    ##  8 s̪|s       136   0.0428   116
    ##  9 ɹ̺         114   0.0359   130
    ## 10 d̪|d        92   0.0290   145
    ## # ... with 1,200 more rows
…
